\relax 
\providecommand\hyper@newdestlabel[2]{}
\providecommand\HyperFirstAtBeginDocument{\AtBeginDocument}
\HyperFirstAtBeginDocument{\ifx\hyper@anchor\@undefined
\global\let\oldcontentsline\contentsline
\gdef\contentsline#1#2#3#4{\oldcontentsline{#1}{#2}{#3}}
\global\let\oldnewlabel\newlabel
\gdef\newlabel#1#2{\newlabelxx{#1}#2}
\gdef\newlabelxx#1#2#3#4#5#6{\oldnewlabel{#1}{{#2}{#3}}}
\AtEndDocument{\ifx\hyper@anchor\@undefined
\let\contentsline\oldcontentsline
\let\newlabel\oldnewlabel
\fi}
\fi}
\global\let\hyper@last\relax 
\gdef\HyperFirstAtBeginDocument#1{#1}
\providecommand*\HyPL@Entry[1]{}
\bibstyle{plainnat}
\citation{Lautenberger2009}
\citation{Hurley2016}
\HyPL@Entry{0<</S/D>>}
\newlabel{sec:Chapter 2: Estimation of Material Parameters}{{}{1}{Chapter 2: Estimation of Material Parameters}{section*.1}{}}
\citation{McGrattan2017a}
\citation{McGrattan2017a}
\citation{Lautenberger2016}
\citation{Mcgrattan2016}
\bibdata{library}
\@writefile{toc}{\def \@chapapp {}}
\@writefile{toc}{\contentsline {chapter}{BIBLIOGRAPHY}{4}{figure.0.2}}
\@writefile{lof}{\contentsline {figure}{\numberline {Figure\nobreakspace  1}{\ignorespaces Property estimation converges on a solution early ($<500$ generations).}}{5}{figure.0.1}}
\newlabel{fig:fig_1}{{1}{5}{Results}{figure.0.1}{}}
\@writefile{lof}{\contentsline {figure}{\numberline {Figure\nobreakspace  2}{\ignorespaces Simulated versus experimental TGA}}{6}{figure.0.2}}
\newlabel{fig:fig_2}{{2}{6}{Discussion}{figure.0.2}{}}
\bibcite{Hurley2016}{{1}{2016}{{Hurley et~al.}}{{Hurley, Gottuk, Hall, Harada, Kuligowski, Puchovsky, Torero, Watts, and Wieczorek}}}
\bibcite{Lautenberger2009}{{2}{2014}{{Lautenberger}}{{}}}
\bibcite{Lautenberger2016}{{3}{2016}{{Lautenberger}}{{}}}
\bibcite{McGrattan2017a}{{4}{2017}{{McGrattan et~al.}}{{McGrattan, Hostikka, McDermott, Floyd, Weinschenk, and Overholt}}}
\bibcite{Mcgrattan2016}{{5}{2016}{{Mcgrattan and Mcdermott}}{{}}}
