\relax 
\citation{Mell2007}
\citation{Quintiere2006}
\citation{Quintiere2006}
\citation{Mcgrattan2016}
\citation{Linn2002}
\citation{Quintiere2006}
\citation{Lamorlette2015}
\Newlabel{umt}{a}
\Newlabel{msfl}{b}
\@LN@col{1}
\@writefile{toc}{\contentsline {section}{\numberline {1}Introduction}{1}}
\newlabel{S:1}{{1}{1}}
\@LN@col{2}
\citation{Albini1995a}
\citation{Ritchie}
\citation{Mcdermott2017}
\citation{Lautenberger2009}
\citation{McGrattan2017}
\citation{Albini1995a}
\citation{Albini1995a}
\citation{Albini1995a}
\@LN@col{1}
\@writefile{toc}{\contentsline {section}{\numberline {2}Methods}{2}}
\newlabel{S:methods}{{2}{2}}
\@writefile{toc}{\contentsline {subsection}{\numberline {2.1}Description}{2}}
\newlabel{S:methods:description}{{2.1}{2}}
\@writefile{toc}{\contentsline {subsubsection}{\numberline {2.1.1}Model Assumptions}{2}}
\newlabel{S:methods:assumptions}{{2.1.1}{2}}
\@writefile{toc}{\contentsline {subsection}{\numberline {2.2}Material Parameters}{2}}
\newlabel{S:methods:material_params}{{2.2}{2}}
\@LN@col{2}
\@writefile{toc}{\contentsline {subsection}{\numberline {2.3}Thin Fuel Support}{2}}
\newlabel{S:methods:thin_fuel_support}{{2.3}{2}}
\@writefile{toc}{\contentsline {section}{\numberline {3}Model Validation}{2}}
\@writefile{toc}{\contentsline {subsection}{\numberline {3.1}Ignition Time and Mass Loss Rate}{2}}
\newlabel{S:validation:ignition_and_mlr}{{3.1}{2}}
\citation{Alves1989}
\@LN@col{1}
\@writefile{toc}{\contentsline {subsection}{\numberline {3.2}Model Validation Discussion}{3}}
\newlabel{S:validation_discussion}{{3.2}{3}}
\@writefile{toc}{\contentsline {subsubsection}{\numberline {3.2.1}Ignition Time}{3}}
\newlabel{S:validation_discussion:ignition}{{3.2.1}{3}}
\@writefile{toc}{\contentsline {subsubsection}{\numberline {3.2.2}Mass Loss Rate}{3}}
\newlabel{S:validation_discussion:mlr}{{3.2.2}{3}}
\@LN@col{2}
\@writefile{toc}{\contentsline {subsubsection}{\numberline {3.2.3}Model Validation Conclusion}{3}}
\newlabel{S:validation_discussion:conclusion}{{3.2.3}{3}}
\@writefile{toc}{\contentsline {section}{\numberline {4}Experiments}{3}}
\newlabel{S:experiments}{{4}{3}}
\citation{Quintiere2006}
\citation{Quintiere2006}
\citation{rockafellar2009variational}
\@LN@col{1}
\@writefile{toc}{\contentsline {subsection}{\numberline {4.1}Thermal Inertia}{4}}
\newlabel{S:experiments:inertia}{{4.1}{4}}
\@writefile{toc}{\contentsline {subsection}{\numberline {4.2}Fuel Composition}{4}}
\newlabel{S:experiments:composition}{{4.2}{4}}
\@writefile{toc}{\contentsline {section}{\numberline {5}Experiment Results and Discussion}{4}}
\@writefile{toc}{\contentsline {subsection}{\numberline {5.1}Ignition Time}{4}}
\@LN@col{2}
\@writefile{toc}{\contentsline {subsection}{\numberline {5.2}Mass Loss Rate}{4}}
\@writefile{lof}{\contentsline {figure}{\numberline {1}{\ignorespaces a,b,c: Ignition time delay of simulated and empirically-derived predictions. 4\%, 21\%, and 60\% moisture content, respectively. d,e,f: Mass loss of simulated and experimental fuels as reported in literature. $4\% 10.7cm$, $21\% 4.8cm$, and $60\% 10.7cm$ moisture content and diameter, respectively.}}{5}}
\newlabel{fig:validation}{{1}{5}}
\@writefile{lof}{\contentsline {figure}{\numberline {2}{\ignorespaces a,b,c: Ignition time delay increase in fuels assumed to be thermally thin over fuels assumed to be thermally thick as percentage of total time at heat release rates of 112.5, 225, 450, and 900 $kW/m^2$. 4\%, 21\%, and 60\% moisture content, respectively. d: Simulated and measured TGA plots for lodgepole pine samples. 20\ensuremath  {^\circ }C/min, 10\ensuremath  {^\circ }C/min, and 5\ensuremath  {^\circ }C/min heating rates left to right, respectively. e: Geometry of the model. The light cylinder at $z = 0.6$ is the fuel, the black sphere at $z = 0.65$ is the sensor in cement, and the dark gray plate at $z = 0$ is the burner.}}{6}}
\newlabel{fig:mixedbag}{{2}{6}}
\@writefile{lof}{\contentsline {figure}{\numberline {3}{\ignorespaces Ignition time delays. Left column: HRRPUA = 112.5 $kW/m^2$. Right column: HRRPUA = 900 $kW/m^2$. Top row: 4\% moisture content. Middle row: 21\% moisture content. Bottom row: 60\% moisture content.}}{7}}
\newlabel{fig:ignition}{{3}{7}}
\@writefile{lof}{\contentsline {figure}{\numberline {4}{\ignorespaces Mass loss rates. a,b: Hausdorff distance as function of fuel diameter. Top: HRRPUA = 225 $kW/m^2$. Bottom: HRRPUA = 900 $kW/m^2$. c,d: mass loss of 21\% moisture content thermally thick and thermally thin fuels of diameter $1mm$ (top) and $5mm$ (bottom) at HRRPUA = 900 $kW/m^2$.}}{8}}
\newlabel{fig:hausdorff}{{4}{8}}
\@LN@col{1}
\@writefile{toc}{\contentsline {subsection}{\numberline {5.3}Thermal Inertia}{8}}
\@LN@col{2}
\@writefile{lof}{\contentsline {figure}{\numberline {5}{\ignorespaces Surface temperatures and mass losses when burner is extinguished on fuel ignition (HRRPUA = 450 $kW/m^2$). Solid lines denote fuels assumed to be thermally thick and dashed lines denote fuels assumed to be thermally thin. Left column: mass loss. Right column: surface temperature. Top row: 4\% moisture content. Middle row: 21\% moisture content. Bottom row: 60\% moisture content.}}{9}}
\newlabel{fig:cons450}{{5}{9}}
\@writefile{lof}{\contentsline {figure}{\numberline {6}{\ignorespaces Surface temperatures and mass losses when burner is extinguished on fuel ignition (HRRPUA = 900 $kW/m^2$). Solid lines denote fuels assumed to be thermally thick and dashed lines denote fuels assumed to be thermally thin. Left column: mass loss. Right column: surface temperature. Top row: 4\% moisture content. Middle row: 21\% moisture content. Bottom row: 60\% moisture content.}}{10}}
\newlabel{fig:cons900}{{6}{10}}
\@writefile{lof}{\contentsline {figure}{\numberline {7}{\ignorespaces HRRPUA = 450 $kW/m^2$; 5mm diameter fuel, moisture content 21\%. Left column: thermally thick. Right column: thermally thin. Top row: ignition time of thick fuel ($7.2s$). Middle row: ignition time of thin fuel ($17.4s$). Bottom row: thin fuel entirely char ($22.8s$).}}{11}}
\newlabel{fig:comp}{{7}{11}}
\@LN@col{1}
\@writefile{toc}{\contentsline {subsection}{\numberline {5.4}Fuel Composition}{12}}
\@LN@col{2}
\@writefile{toc}{\contentsline {section}{\numberline {6}Conclusion}{12}}
\citation{Quintiere2006}
\citation{bergman}
\citation{Albini1995a}
\@LN@col{1}
\@writefile{toc}{\contentsline {section}{\numberline {7}Acknowledgements}{13}}
\@writefile{toc}{\contentsline {section}{\numberline {8}Appendices}{13}}
\@writefile{toc}{\contentsline {section}{\numberline {A}Smallness of Thermally Thin Fuels}{13}}
\@writefile{toc}{\contentsline {subsection}{\numberline {A.1}Definition}{13}}
\newlabel{apx:thin_fuels}{{A.1}{13}}
\@writefile{toc}{\contentsline {subsection}{\numberline {A.2}Biot Numbers of Experiments}{13}}
\newlabel{apx:biot_numbers}{{A.2}{13}}
\@LN@col{2}
\@writefile{lot}{\contentsline {table}{\numberline {1}{\ignorespaces Biot numbers of model fuels. HRRPUA=($450{\begingroup kW\endgroup \over m^2}$).}}{13}}
\newlabel{tab:biots}{{1}{13}}
\@writefile{toc}{\contentsline {section}{\numberline {B}Relationship between heat flux and Heat Release Rate Per Unit Area (HRRPUA)}{13}}
\newlabel{apx:HHRPUA}{{B}{13}}
\@writefile{lot}{\contentsline {table}{\numberline {2}{\ignorespaces Flux on 5mm fuel element at different HRRPUA.}}{13}}
\newlabel{tab:fluxes}{{2}{13}}
\citation{bergman}
\citation{Albini1995a}
\citation{Lautenberger2009}
\citation{Lautenberger2009}
\citation{McGrattan2017}
\citation{McGrattan2017}
\@LN@col{1}
\@writefile{toc}{\contentsline {section}{\numberline {C}Ignition Time Analytical Solution}{14}}
\newlabel{apx:ignition}{{C}{14}}
\@writefile{toc}{\contentsline {section}{\numberline {D}Gpyro Formulations}{14}}
\newlabel{apx:gpyro}{{D}{14}}
\@LN@col{2}
\@writefile{lot}{\contentsline {table}{\numberline {3}{\ignorespaces Material and reaction parameters for lodgepole pine wood found through numerical approximation with Gpyro. }}{14}}
\newlabel{tab:gpyro_params}{{3}{14}}
\@writefile{toc}{\contentsline {section}{\numberline {E}FDS Solid Phase Physics}{14}}
\newlabel{apx:fds}{{E}{14}}
\@writefile{toc}{\contentsline {subsection}{\numberline {E.1}Convective Heat Transfer Model}{14}}
\newlabel{apx:fds:convection}{{E.1}{14}}
\@writefile{toc}{\contentsline {subsection}{\numberline {E.2}Mixed Solid-Phase Material Parameters}{14}}
\newlabel{apx:fds:solids}{{E.2}{14}}
\bibstyle{model1-num-names}
\bibdata{summer_2018.bib}
\bibcite{Mell2007}{{1}{2007}{{Mell et~al.}}{{Mell, Jenkins, Gould, and Cheney}}}
\bibcite{Quintiere2006}{{2}{2006}{{Quintiere}}{{}}}
\bibcite{Mcgrattan2016}{{3}{2016}{{Mcgrattan and Mcdermott}}{{}}}
\bibcite{Linn2002}{{4}{2002}{{Linn et~al.}}{{Linn, Reisner, Colman, and Winterkamp}}}
\bibcite{Lamorlette2015}{{5}{2015}{{Lamorlette and Candelier}}{{}}}
\bibcite{Albini1995a}{{6}{1995}{{Albini and Reinhardt}}{{}}}
\bibcite{Ritchie}{{7}{????}{{Ritchie et~al.}}{{Ritchie, Steckler, Hamins, and Cleary}}}
\bibcite{Mcdermott2017}{{8}{2017}{{Mcdermott}}{{}}}
\bibcite{Lautenberger2009}{{9}{2014}{{Lautenberger}}{{}}}
\bibcite{McGrattan2017}{{10}{2017}{{McGrattan et~al.}}{{McGrattan, Hostikka, McDermott, Floyd, Weinschenk, and Overholt}}}
\bibcite{Alves1989}{{11}{1989}{{Alves and Figueiredo}}{{}}}
\bibcite{rockafellar2009variational}{{12}{2009}{{Rockafellar et~al.}}{{Rockafellar, Wets, and Wets}}}
\bibcite{bergman}{{13}{2011}{{Bergman et~al.}}{{Bergman, Lavine, Incropera, and DeWitt}}}
\@LN@col{1}
\@writefile{toc}{\contentsline {section}{\numberline {F}Computer Resource Usage}{15}}
\newlabel{apx:cpu}{{F}{15}}
\@writefile{lot}{\contentsline {table}{\numberline {4}{\ignorespaces CPU time of single- and multi-layer models.}}{15}}
\newlabel{tab:cpu}{{4}{15}}
\@writefile{lot}{\contentsline {table}{\numberline {5}{\ignorespaces Memory resident size of single- and multi-layer models.}}{15}}
\newlabel{tab:ram}{{5}{15}}
\@LN@col{2}
\@writefile{toc}{\contentsline {section}{\numberline {9}References}{15}}
