\relax 
\providecommand\hyper@newdestlabel[2]{}
\citation{wfds_site}
\citation{Mcgrattan2017}
\citation{wfds_site}
\citation{Parsons2010}
\citation{bergman}
\citation{bergman}
\newlabel{sec:proposal}{{}{1}{Proposal}{section*.1}{}}
\citation{bergman}
\citation{AlnaesBlechta2015a}
\citation{Albini1995a}
\@setckpt{proposal_body}{
\setcounter{page}{3}
\setcounter{equation}{0}
\setcounter{enumi}{0}
\setcounter{enumii}{0}
\setcounter{enumiii}{0}
\setcounter{enumiv}{0}
\setcounter{footnote}{0}
\setcounter{mpfootnote}{0}
\setcounter{part}{0}
\setcounter{chapter}{0}
\setcounter{section}{0}
\setcounter{subsection}{0}
\setcounter{subsubsection}{0}
\setcounter{paragraph}{0}
\setcounter{subparagraph}{0}
\setcounter{figure}{0}
\setcounter{table}{0}
\setcounter{NAT@ctr}{0}
\setcounter{parentequation}{0}
\setcounter{subfigure}{0}
\setcounter{lofdepth}{1}
\setcounter{subtable}{0}
\setcounter{lotdepth}{1}
\setcounter{Item}{0}
\setcounter{Hfootnote}{0}
\setcounter{bookmark@seq@number}{0}
\setcounter{section@level}{0}
}
