This is BibTeX, Version 0.99d (TeX Live 2017/Debian)
Capacity: max_strings=100000, hash_size=100000, hash_prime=85009
The top-level auxiliary file: thesis_proposal.aux
The style file: plainnat.bst
Database file #1: library.bib
Warning--empty journal in Mcgrattan2017
Warning--empty journal in Parsons2010
Warning--there's a number but no volume in Parsons2010
You've used 6 entries,
            2773 wiz_defined-function locations,
            636 strings with 6185 characters,
and the built_in function-call counts, 3121 in all, are:
= -- 259
> -- 250
< -- 2
+ -- 84
- -- 78
* -- 279
:= -- 510
add.period$ -- 23
call.type$ -- 6
change.case$ -- 44
chr.to.int$ -- 6
cite$ -- 15
duplicate$ -- 117
empty$ -- 206
format.name$ -- 86
if$ -- 624
int.to.chr$ -- 1
int.to.str$ -- 1
missing$ -- 6
newline$ -- 43
num.names$ -- 24
pop$ -- 87
preamble$ -- 1
purify$ -- 38
quote$ -- 0
skip$ -- 99
stack$ -- 0
substring$ -- 50
swap$ -- 4
text.length$ -- 0
text.prefix$ -- 0
top$ -- 0
type$ -- 61
warning$ -- 3
while$ -- 22
width$ -- 0
write$ -- 92
(There were 3 warnings)
