\relax 
\providecommand\hyper@newdestlabel[2]{}
\providecommand\HyperFirstAtBeginDocument{\AtBeginDocument}
\HyperFirstAtBeginDocument{\ifx\hyper@anchor\@undefined
\global\let\oldcontentsline\contentsline
\gdef\contentsline#1#2#3#4{\oldcontentsline{#1}{#2}{#3}}
\global\let\oldnewlabel\newlabel
\gdef\newlabel#1#2{\newlabelxx{#1}#2}
\gdef\newlabelxx#1#2#3#4#5#6{\oldnewlabel{#1}{{#2}{#3}}}
\AtEndDocument{\ifx\hyper@anchor\@undefined
\let\contentsline\oldcontentsline
\let\newlabel\oldnewlabel
\fi}
\fi}
\global\let\hyper@last\relax 
\gdef\HyperFirstAtBeginDocument#1{#1}
\providecommand*\HyPL@Entry[1]{}
\bibstyle{plainnat}
\citation{wfds_site}
\citation{Mcgrattan2017}
\citation{wfds_site}
\citation{Parsons2010}
\citation{bergman}
\citation{bergman}
\HyPL@Entry{0<</S/D>>}
\newlabel{sec:proposal}{{}{1}{Proposal}{section*.1}{}}
\citation{bergman}
\citation{AlnaesBlechta2015a}
\citation{Albini1995a}
\bibdata{library}
\@writefile{toc}{\def \@chapapp {}}
\@writefile{toc}{\contentsline {chapter}{BIBLIOGRAPHY}{2}{section*.1}}
\bibcite{Albini1995a}{{1}{1995}{{Albini and Reinhardt}}{{}}}
\bibcite{AlnaesBlechta2015a}{{2}{2015}{{Aln{\ae }s et~al.}}{{Aln{\ae }s, Blechta, Hake, Johansson, Kehlet, Logg, Richardson, Ring, Rognes, and Wells}}}
\bibcite{bergman}{{3}{2011}{{Bergman et~al.}}{{Bergman, Lavine, Incropera, and DeWitt}}}
\bibcite{Mcgrattan2017}{{4}{2017}{{McGrattan et~al.}}{{McGrattan, Hostikka, McDermott, Floyd, Weinschenk, and Overholt}}}
\bibcite{wfds_site}{{5}{2010}{{Mell}}{{}}}
\bibcite{Parsons2010}{{6}{2010}{{Parsons et~al.}}{{Parsons, Mell, and Mccauley}}}
